﻿  CardsParserTest.cpp
g:\pac\pac-decembrie\playablec\bangtests\cardsparsertest.cpp(34): fatal error C1010: unexpected end of file while looking for precompiled header. Did you forget to add '#include "stdafx.h"' to your source?
  CsvParserTest.cpp
g:\pac\pac-decembrie\playablec\bangtests\csvparsertest.cpp(28): fatal error C1010: unexpected end of file while looking for precompiled header. Did you forget to add '#include "stdafx.h"' to your source?
  Test.cpp
g:\pac\pac-decembrie\playablec\bangtests\test.cpp(21): fatal error C1010: unexpected end of file while looking for precompiled header. Did you forget to add '#include "stdafx.h"' to your source?
  Generating Code...
