^D:\BATAIEDEJOCBANG\PLAYABLEC\LOGGING\DEBUG\LOGGING.OBJ
/OUT:"D:\BATAIEDEJOCBANG\PLAYABLEC\DEBUG\LOGGING.DLL" /INCREMENTAL /NOLOGO KERNEL32.LIB USER32.LIB GDI32.LIB WINSPOOL.LIB COMDLG32.LIB ADVAPI32.LIB SHELL32.LIB OLE32.LIB OLEAUT32.LIB UUID.LIB ODBC32.LIB ODBCCP32.LIB /MANIFEST /MANIFESTUAC:"level='asInvoker' uiAccess='false'" /manifest:embed /DEBUG:FASTLINK /PDB:"D:\BATAIEDEJOCBANG\PLAYABLEC\DEBUG\LOGGING.PDB" /SUBSYSTEM:WINDOWS /TLBID:1 /DYNAMICBASE /NXCOMPAT /IMPLIB:"D:\BATAIEDEJOCBANG\PLAYABLEC\DEBUG\LOGGING.LIB" /MACHINE:X86 /DLL DEBUG\LOGGING.OBJ
^D:\FACULTATE\PAC\BANG11\PLAYABLEC\LOGGING\DEBUG\LOGGING.OBJ
/OUT:"D:\FACULTATE\PAC\BANG11\PLAYABLEC\DEBUG\LOGGING.DLL" /INCREMENTAL /NOLOGO KERNEL32.LIB USER32.LIB GDI32.LIB WINSPOOL.LIB COMDLG32.LIB ADVAPI32.LIB SHELL32.LIB OLE32.LIB OLEAUT32.LIB UUID.LIB ODBC32.LIB ODBCCP32.LIB /MANIFEST /MANIFESTUAC:"level='asInvoker' uiAccess='false'" /manifest:embed /DEBUG:FASTLINK /PDB:"D:\FACULTATE\PAC\BANG11\PLAYABLEC\DEBUG\LOGGING.PDB" /SUBSYSTEM:WINDOWS /TLBID:1 /DYNAMICBASE /NXCOMPAT /IMPLIB:"D:\FACULTATE\PAC\BANG11\PLAYABLEC\DEBUG\LOGGING.LIB" /MACHINE:X86 /DLL DEBUG\LOGGING.OBJ
^G:\PAC\PAC-DECEMBRIE\PLAYABLEC\LOGGING\DEBUG\LOGGING.OBJ
/OUT:"G:\PAC\PAC-DECEMBRIE\PLAYABLEC\DEBUG\LOGGING.DLL" /INCREMENTAL /NOLOGO KERNEL32.LIB USER32.LIB GDI32.LIB WINSPOOL.LIB COMDLG32.LIB ADVAPI32.LIB SHELL32.LIB OLE32.LIB OLEAUT32.LIB UUID.LIB ODBC32.LIB ODBCCP32.LIB /MANIFEST /MANIFESTUAC:"level='asInvoker' uiAccess='false'" /manifest:embed /DEBUG:FASTLINK /PDB:"G:\PAC\PAC-DECEMBRIE\PLAYABLEC\DEBUG\LOGGING.PDB" /SUBSYSTEM:WINDOWS /TLBID:1 /DYNAMICBASE /NXCOMPAT /IMPLIB:"G:\PAC\PAC-DECEMBRIE\PLAYABLEC\DEBUG\LOGGING.LIB" /MACHINE:X86 /DLL DEBUG\LOGGING.OBJ
